{
  "chrome": {
    "args": [
      "--no-sandbox",
      "--disable-setuid-sandbox",
      "--disable-infobars",
      "--window-position=0,0",
      "--ignore-certifcate-errors",
      "--ignore-certifcate-errors-spki-list"
    ],
    "headless": false,
    "ignoreHTTPSErrors": true
  }
}